Questions,Data Source
How many radiograph sets do exist?,Radiographs
What abnormalities do exist in the veterinary records?,Veterinary Records
What radiograph sets do not have abnormalities?,Veterinary Records
What radiograph sets do not have racing information?,Form Records
What radiograph sets do not have training information?,Trackwork Records
