Activity,Stable,Day of the week,Start time,End time
Morning trackwork,Sha Tin,Every day,04:45,08:45
Morning trackwork,Conghua,Every day,06:00,09:00
Barrier trials,Sha Tin,Tuesdays and Fridays,08:15,Not provide
Barrier trials,Conghua,Thursdays,09:00,Not provide
Grass trials,Sha Tin,Designated Tuesdays,07:00,Not provide
Grass trials,Conghua,Designated Thursdays/Fridays,08:30/07:00,Not provide
