<?xml version="1.0" encoding="UTF-8" standalone="no"?>
<svg
   xmlns:dc="http://purl.org/dc/elements/1.1/"
   xmlns:cc="http://creativecommons.org/ns#"
   xmlns:rdf="http://www.w3.org/1999/02/22-rdf-syntax-ns#"
   xmlns:svg="http://www.w3.org/2000/svg"
   xmlns="http://www.w3.org/2000/svg"
   xmlns:sodipodi="http://sodipodi.sourceforge.net/DTD/sodipodi-0.dtd"
   xmlns:inkscape="http://www.inkscape.org/namespaces/inkscape"
   width="199.12352mm"
   height="51.408577mm"
   viewBox="0 0 199.12352 51.408577"
   version="1.1"
   id="svg1290"
   inkscape:version="1.0.1 (3bc2e813f5, 2020-09-07)"
   sodipodi:docname="k-means-clustering.svg">
  <defs
     id="defs1284" />
  <sodipodi:namedview
     id="base"
     pagecolor="#ffffff"
     bordercolor="#666666"
     borderopacity="1.0"
     inkscape:pageopacity="0.0"
     inkscape:pageshadow="2"
     inkscape:zoom="1.4"
     inkscape:cx="375.48783"
     inkscape:cy="99.492524"
     inkscape:document-units="mm"
     inkscape:current-layer="layer1"
     inkscape:document-rotation="0"
     showgrid="true"
     fit-margin-top="0"
     fit-margin-left="0"
     fit-margin-right="0"
     fit-margin-bottom="0"
     inkscape:window-width="2560"
     inkscape:window-height="1376"
     inkscape:window-x="0"
     inkscape:window-y="27"
     inkscape:window-maximized="1"
     units="mm">
    <inkscape:grid
       type="xygrid"
       id="grid1853"
       units="mm"
       spacingx="1"
       spacingy="1"
       originx="-14.803032"
       originy="-21.87114" />
  </sodipodi:namedview>
  <metadata
     id="metadata1287">
    <rdf:RDF>
      <cc:Work
         rdf:about="">
        <dc:format>image/svg+xml</dc:format>
        <dc:type
           rdf:resource="http://purl.org/dc/dcmitype/StillImage" />
        <dc:title />
      </cc:Work>
    </rdf:RDF>
  </metadata>
  <g
     inkscape:label="Layer 1"
     inkscape:groupmode="layer"
     id="layer1"
     transform="translate(-14.803032,-21.87114)">
    <rect
       style="fill:none;fill-opacity:0.4;stroke:#000000;stroke-width:0.999999;stroke-linejoin:miter;stroke-miterlimit:4;stroke-dasharray:none;stroke-dashoffset:0"
       id="rect1855"
       width="44.522141"
       height="44.522141"
       x="15.303032"
       y="28.257576"
       ry="5.8236333e-07" />
    <rect
       style="fill:none;fill-opacity:0.4;stroke:#000000;stroke-width:0.999999;stroke-linejoin:miter;stroke-miterlimit:4;stroke-dasharray:none;stroke-dashoffset:0"
       id="rect1857"
       width="2.2261071"
       height="2.2261071"
       x="19.755247"
       y="32.709793"
       ry="3.7853616e-07" />
    <rect
       style="fill:none;fill-opacity:0.4;stroke:#000000;stroke-width:0.999999;stroke-linejoin:miter;stroke-miterlimit:4;stroke-dasharray:none;stroke-dashoffset:0"
       id="rect1859"
       width="2.2261071"
       height="2.2261071"
       x="26.433567"
       y="30.483685"
       ry="3.7853616e-07" />
    <rect
       style="fill:none;fill-opacity:0.4;stroke:#000000;stroke-width:0.999999;stroke-linejoin:miter;stroke-miterlimit:4;stroke-dasharray:none;stroke-dashoffset:0"
       id="rect1861"
       width="2.2261071"
       height="2.2261071"
       x="30.885782"
       y="34.935898"
       ry="3.7853616e-07" />
    <rect
       style="fill:none;fill-opacity:0.4;stroke:#000000;stroke-width:0.999999;stroke-linejoin:miter;stroke-miterlimit:4;stroke-dasharray:none;stroke-dashoffset:0"
       id="rect1863"
       width="2.2261071"
       height="2.2261071"
       x="21.981354"
       y="39.388111"
       ry="3.7853616e-07" />
    <rect
       style="fill:none;fill-opacity:0.4;stroke:#000000;stroke-width:0.999999;stroke-linejoin:miter;stroke-miterlimit:4;stroke-dasharray:none;stroke-dashoffset:0"
       id="rect1865"
       width="2.2261071"
       height="2.2261071"
       x="28.659674"
       y="39.388111"
       ry="3.7853616e-07" />
    <rect
       style="fill:none;fill-opacity:0.4;stroke:#000000;stroke-width:0.999999;stroke-linejoin:miter;stroke-miterlimit:4;stroke-dasharray:none;stroke-dashoffset:0"
       id="rect1867"
       width="2.2261071"
       height="2.2261071"
       x="24.20746"
       y="43.840324"
       ry="3.7853616e-07" />
    <rect
       style="fill:none;fill-opacity:0.4;stroke:#000000;stroke-width:0.999999;stroke-linejoin:miter;stroke-miterlimit:4;stroke-dasharray:none;stroke-dashoffset:0"
       id="rect1869"
       width="2.2261071"
       height="2.2261071"
       x="55.372959"
       y="68.327507"
       ry="3.7853616e-07" />
    <rect
       style="fill:none;fill-opacity:0.4;stroke:#000000;stroke-width:0.999999;stroke-linejoin:miter;stroke-miterlimit:4;stroke-dasharray:none;stroke-dashoffset:0"
       id="rect1871"
       width="2.2261071"
       height="2.2261071"
       x="48.694637"
       y="66.101395"
       ry="3.7853616e-07" />
    <rect
       style="fill:none;fill-opacity:0.4;stroke:#000000;stroke-width:0.999999;stroke-linejoin:miter;stroke-miterlimit:4;stroke-dasharray:none;stroke-dashoffset:0"
       id="rect1873"
       width="2.2261071"
       height="2.2261071"
       x="53.146851"
       y="61.649181"
       ry="3.7853616e-07" />
    <rect
       style="fill:none;fill-opacity:0.4;stroke:#000000;stroke-width:0.999999;stroke-linejoin:miter;stroke-miterlimit:4;stroke-dasharray:none;stroke-dashoffset:0"
       id="rect1875"
       width="2.2261071"
       height="2.2261071"
       x="55.372959"
       y="54.97086"
       ry="3.7853616e-07" />
    <rect
       style="fill:none;fill-opacity:0.4;stroke:#000000;stroke-width:0.999999;stroke-linejoin:miter;stroke-miterlimit:4;stroke-dasharray:none;stroke-dashoffset:0"
       id="rect1877"
       width="2.2261071"
       height="2.2261071"
       x="44.242424"
       y="61.649181"
       ry="3.7853616e-07" />
    <rect
       style="fill:none;fill-opacity:0.4;stroke:#000000;stroke-width:0.999999;stroke-linejoin:miter;stroke-miterlimit:4;stroke-dasharray:none;stroke-dashoffset:0"
       id="rect1879"
       width="2.2261071"
       height="2.2261071"
       x="37.564106"
       y="68.327507"
       ry="3.7853616e-07" />
    <circle
       style="fill:#00ffff;fill-opacity:1;stroke:#000000;stroke-width:0.999999;stroke-linejoin:miter;stroke-miterlimit:4;stroke-dasharray:none;stroke-dashoffset:0"
       id="path1881"
       cx="56.471992"
       cy="31.650829"
       r="1.1130536" />
    <circle
       style="fill:#ff0000;fill-opacity:1;stroke:#000000;stroke-width:0.999999;stroke-linejoin:miter;stroke-miterlimit:4;stroke-dasharray:none;stroke-dashoffset:0"
       id="circle1883"
       cx="18.677589"
       cy="69.498085"
       r="1.1130536" />
    <rect
       style="fill:none;fill-opacity:0.4;stroke:#000000;stroke-width:1;stroke-linejoin:miter;stroke-miterlimit:4;stroke-dasharray:none;stroke-dashoffset:0"
       id="rect1915"
       width="44.522141"
       height="44.522141"
       x="66.503494"
       y="28.257576"
       ry="5.8236333e-07" />
    <rect
       style="fill:#ff0000;fill-opacity:1;stroke:#000000;stroke-width:0.999999;stroke-linejoin:miter;stroke-miterlimit:4;stroke-dasharray:none;stroke-dashoffset:0"
       id="rect1917"
       width="2.2261071"
       height="2.2261071"
       x="70.955704"
       y="32.709793"
       ry="3.7853616e-07" />
    <rect
       style="fill:#00ffff;fill-opacity:1;stroke:#000000;stroke-width:0.999999;stroke-linejoin:miter;stroke-miterlimit:4;stroke-dasharray:none;stroke-dashoffset:0"
       id="rect1919"
       width="2.2261071"
       height="2.2261071"
       x="77.634026"
       y="30.483685"
       ry="3.7853616e-07" />
    <rect
       style="fill:#00ffff;fill-opacity:1;stroke:#000000;stroke-width:0.999999;stroke-linejoin:miter;stroke-miterlimit:4;stroke-dasharray:none;stroke-dashoffset:0"
       id="rect1921"
       width="2.2261071"
       height="2.2261071"
       x="82.086243"
       y="34.935898"
       ry="3.7853616e-07" />
    <rect
       style="fill:#ff0000;fill-opacity:1;stroke:#000000;stroke-width:0.999999;stroke-linejoin:miter;stroke-miterlimit:4;stroke-dasharray:none;stroke-dashoffset:0"
       id="rect1923"
       width="2.2261071"
       height="2.2261071"
       x="73.181816"
       y="39.388111"
       ry="3.7853616e-07" />
    <rect
       style="fill:#00ffff;fill-opacity:1;stroke:#000000;stroke-width:0.999999;stroke-linejoin:miter;stroke-miterlimit:4;stroke-dasharray:none;stroke-dashoffset:0"
       id="rect1925"
       width="2.2261071"
       height="2.2261071"
       x="79.860138"
       y="39.388111"
       ry="3.7853616e-07" />
    <rect
       style="fill:#ff0000;fill-opacity:1;stroke:#000000;stroke-width:0.999999;stroke-linejoin:miter;stroke-miterlimit:4;stroke-dasharray:none;stroke-dashoffset:0"
       id="rect1927"
       width="2.2261071"
       height="2.2261071"
       x="75.407921"
       y="43.840324"
       ry="3.7853616e-07" />
    <rect
       style="fill:#00ffff;fill-opacity:1;stroke:#000000;stroke-width:0.999999;stroke-linejoin:miter;stroke-miterlimit:4;stroke-dasharray:none;stroke-dashoffset:0"
       id="rect1929"
       width="2.2261071"
       height="2.2261071"
       x="106.57343"
       y="68.327507"
       ry="3.7853616e-07" />
    <rect
       style="fill:#00ffff;fill-opacity:1;stroke:#000000;stroke-width:0.999999;stroke-linejoin:miter;stroke-miterlimit:4;stroke-dasharray:none;stroke-dashoffset:0"
       id="rect1931"
       width="2.2261071"
       height="2.2261071"
       x="99.895096"
       y="66.101395"
       ry="3.7853616e-07" />
    <rect
       style="fill:#00ffff;fill-opacity:1;stroke:#000000;stroke-width:0.999999;stroke-linejoin:miter;stroke-miterlimit:4;stroke-dasharray:none;stroke-dashoffset:0"
       id="rect1933"
       width="2.2261071"
       height="2.2261071"
       x="104.34731"
       y="61.649181"
       ry="3.7853616e-07" />
    <rect
       style="fill:#00ffff;fill-opacity:1;stroke:#000000;stroke-width:0.999999;stroke-linejoin:miter;stroke-miterlimit:4;stroke-dasharray:none;stroke-dashoffset:0"
       id="rect1935"
       width="2.2261071"
       height="2.2261071"
       x="106.57343"
       y="54.97086"
       ry="3.7853616e-07" />
    <rect
       style="fill:#00ffff;fill-opacity:1;stroke:#000000;stroke-width:0.999999;stroke-linejoin:miter;stroke-miterlimit:4;stroke-dasharray:none;stroke-dashoffset:0"
       id="rect1937"
       width="2.2261071"
       height="2.2261071"
       x="95.442886"
       y="61.649181"
       ry="3.7853616e-07" />
    <rect
       style="fill:#ff0000;fill-opacity:1;stroke:#000000;stroke-width:0.999999;stroke-linejoin:miter;stroke-miterlimit:4;stroke-dasharray:none;stroke-dashoffset:0"
       id="rect1939"
       width="2.2261071"
       height="2.2261071"
       x="88.764565"
       y="68.327507"
       ry="3.7853616e-07" />
    <circle
       style="fill:#00ffff;fill-opacity:1;stroke:#000000;stroke-width:0.999999;stroke-linejoin:miter;stroke-miterlimit:4;stroke-dasharray:none;stroke-dashoffset:0"
       id="circle1941"
       cx="105.40216"
       cy="45.2407"
       r="1.1130536" />
    <circle
       style="fill:#ff0000;fill-opacity:1;stroke:#000000;stroke-width:0.999999;stroke-linejoin:miter;stroke-miterlimit:4;stroke-dasharray:none;stroke-dashoffset:0"
       id="circle1943"
       cx="76.337799"
       cy="62.727146"
       r="1.1130536" />
    <rect
       style="fill:none;fill-opacity:0.4;stroke:#000000;stroke-width:0.999999;stroke-linejoin:miter;stroke-miterlimit:4;stroke-dasharray:none;stroke-dashoffset:0"
       id="rect1945"
       width="44.522141"
       height="44.522141"
       x="117.70396"
       y="28.257576"
       ry="5.8236333e-07" />
    <rect
       style="fill:#ff0000;fill-opacity:1;stroke:#000000;stroke-width:0.999999;stroke-linejoin:miter;stroke-miterlimit:4;stroke-dasharray:none;stroke-dashoffset:0"
       id="rect1947"
       width="2.2261071"
       height="2.2261071"
       x="122.15616"
       y="32.709793"
       ry="3.7853616e-07" />
    <rect
       style="fill:#ff0000;fill-opacity:1;stroke:#000000;stroke-width:0.999999;stroke-linejoin:miter;stroke-miterlimit:4;stroke-dasharray:none;stroke-dashoffset:0"
       id="rect1949"
       width="2.2261071"
       height="2.2261071"
       x="128.8345"
       y="30.483685"
       ry="3.7853616e-07" />
    <rect
       style="fill:#00ffff;fill-opacity:1;stroke:#000000;stroke-width:0.999999;stroke-linejoin:miter;stroke-miterlimit:4;stroke-dasharray:none;stroke-dashoffset:0"
       id="rect1951"
       width="2.2261071"
       height="2.2261071"
       x="133.28671"
       y="34.935898"
       ry="3.7853616e-07" />
    <rect
       style="fill:#ff0000;fill-opacity:1;stroke:#000000;stroke-width:0.999999;stroke-linejoin:miter;stroke-miterlimit:4;stroke-dasharray:none;stroke-dashoffset:0"
       id="rect1953"
       width="2.2261071"
       height="2.2261071"
       x="124.38226"
       y="39.388111"
       ry="3.7853616e-07" />
    <rect
       style="fill:#ff0000;fill-opacity:1;stroke:#000000;stroke-width:0.999999;stroke-linejoin:miter;stroke-miterlimit:4;stroke-dasharray:none;stroke-dashoffset:0"
       id="rect1955"
       width="2.2261071"
       height="2.2261071"
       x="131.06059"
       y="39.388111"
       ry="3.7853616e-07" />
    <rect
       style="fill:#ff0000;fill-opacity:1;stroke:#000000;stroke-width:0.999999;stroke-linejoin:miter;stroke-miterlimit:4;stroke-dasharray:none;stroke-dashoffset:0"
       id="rect1957"
       width="2.2261071"
       height="2.2261071"
       x="126.60838"
       y="43.840324"
       ry="3.7853616e-07" />
    <rect
       style="fill:#00ffff;fill-opacity:1;stroke:#000000;stroke-width:0.999999;stroke-linejoin:miter;stroke-miterlimit:4;stroke-dasharray:none;stroke-dashoffset:0"
       id="rect1959"
       width="2.2261071"
       height="2.2261071"
       x="157.7739"
       y="68.327507"
       ry="3.7853616e-07" />
    <rect
       style="fill:#00ffff;fill-opacity:1;stroke:#000000;stroke-width:0.999999;stroke-linejoin:miter;stroke-miterlimit:4;stroke-dasharray:none;stroke-dashoffset:0"
       id="rect1961"
       width="2.2261071"
       height="2.2261071"
       x="151.09557"
       y="66.101395"
       ry="3.7853616e-07" />
    <rect
       style="fill:#00ffff;fill-opacity:1;stroke:#000000;stroke-width:0.999999;stroke-linejoin:miter;stroke-miterlimit:4;stroke-dasharray:none;stroke-dashoffset:0"
       id="rect1963"
       width="2.2261071"
       height="2.2261071"
       x="155.54778"
       y="61.649181"
       ry="3.7853616e-07" />
    <rect
       style="fill:#00ffff;fill-opacity:1;stroke:#000000;stroke-width:0.999999;stroke-linejoin:miter;stroke-miterlimit:4;stroke-dasharray:none;stroke-dashoffset:0"
       id="rect1965"
       width="2.2261071"
       height="2.2261071"
       x="157.7739"
       y="54.97086"
       ry="3.7853616e-07" />
    <rect
       style="fill:#00ffff;fill-opacity:1;stroke:#000000;stroke-width:0.999999;stroke-linejoin:miter;stroke-miterlimit:4;stroke-dasharray:none;stroke-dashoffset:0"
       id="rect1967"
       width="2.2261071"
       height="2.2261071"
       x="146.64336"
       y="61.649181"
       ry="3.7853616e-07" />
    <rect
       style="fill:#ff0000;fill-opacity:1;stroke:#000000;stroke-width:0.999999;stroke-linejoin:miter;stroke-miterlimit:4;stroke-dasharray:none;stroke-dashoffset:0"
       id="rect1969"
       width="2.2261071"
       height="2.2261071"
       x="139.96503"
       y="68.327507"
       ry="3.7853616e-07" />
    <circle
       style="fill:#00ffff;fill-opacity:1;stroke:#000000;stroke-width:0.999999;stroke-linejoin:miter;stroke-miterlimit:4;stroke-dasharray:none;stroke-dashoffset:0"
       id="circle1971"
       cx="156.65205"
       cy="49.455959"
       r="1.1130536" />
    <circle
       style="fill:#ff0000;fill-opacity:1;stroke:#000000;stroke-width:0.999999;stroke-linejoin:miter;stroke-miterlimit:4;stroke-dasharray:none;stroke-dashoffset:0"
       id="circle1973"
       cx="130.08034"
       cy="54.147495"
       r="1.1130536" />
    <rect
       style="fill:none;fill-opacity:0.4;stroke:#000000;stroke-width:0.999999;stroke-linejoin:miter;stroke-miterlimit:4;stroke-dasharray:none;stroke-dashoffset:0"
       id="rect1975"
       width="44.522141"
       height="44.522141"
       x="168.90442"
       y="28.257576"
       ry="5.8236333e-07" />
    <rect
       style="fill:#ff0000;fill-opacity:1;stroke:#000000;stroke-width:0.999999;stroke-linejoin:miter;stroke-miterlimit:4;stroke-dasharray:none;stroke-dashoffset:0"
       id="rect1977"
       width="2.2261071"
       height="2.2261071"
       x="173.35664"
       y="32.709793"
       ry="3.7853616e-07" />
    <rect
       style="fill:#ff0000;fill-opacity:1;stroke:#000000;stroke-width:0.999999;stroke-linejoin:miter;stroke-miterlimit:4;stroke-dasharray:none;stroke-dashoffset:0"
       id="rect1979"
       width="2.2261071"
       height="2.2261071"
       x="180.03496"
       y="30.483685"
       ry="3.7853616e-07" />
    <rect
       style="fill:#ff0000;fill-opacity:1;stroke:#000000;stroke-width:0.999999;stroke-linejoin:miter;stroke-miterlimit:4;stroke-dasharray:none;stroke-dashoffset:0"
       id="rect1981"
       width="2.2261071"
       height="2.2261071"
       x="184.48717"
       y="34.935898"
       ry="3.7853616e-07" />
    <rect
       style="fill:#ff0000;fill-opacity:1;stroke:#000000;stroke-width:0.999999;stroke-linejoin:miter;stroke-miterlimit:4;stroke-dasharray:none;stroke-dashoffset:0"
       id="rect1983"
       width="2.2261071"
       height="2.2261071"
       x="175.58275"
       y="39.388111"
       ry="3.7853616e-07" />
    <rect
       style="fill:#ff0000;fill-opacity:1;stroke:#000000;stroke-width:0.999999;stroke-linejoin:miter;stroke-miterlimit:4;stroke-dasharray:none;stroke-dashoffset:0"
       id="rect1985"
       width="2.2261071"
       height="2.2261071"
       x="182.26106"
       y="39.388111"
       ry="3.7853616e-07" />
    <rect
       style="fill:#ff0000;fill-opacity:1;stroke:#000000;stroke-width:0.999999;stroke-linejoin:miter;stroke-miterlimit:4;stroke-dasharray:none;stroke-dashoffset:0"
       id="rect1987"
       width="2.2261071"
       height="2.2261071"
       x="177.80885"
       y="43.840324"
       ry="3.7853616e-07" />
    <rect
       style="fill:#00ffff;fill-opacity:0.4;stroke:#000000;stroke-width:0.999999;stroke-linejoin:miter;stroke-miterlimit:4;stroke-dasharray:none;stroke-dashoffset:0"
       id="rect1989"
       width="2.2261071"
       height="2.2261071"
       x="208.97435"
       y="68.327507"
       ry="3.7853616e-07" />
    <rect
       style="fill:#00ffff;fill-opacity:0.4;stroke:#000000;stroke-width:0.999999;stroke-linejoin:miter;stroke-miterlimit:4;stroke-dasharray:none;stroke-dashoffset:0"
       id="rect1991"
       width="2.2261071"
       height="2.2261071"
       x="202.29604"
       y="66.101395"
       ry="3.7853616e-07" />
    <rect
       style="fill:#00ffff;fill-opacity:0.4;stroke:#000000;stroke-width:0.999999;stroke-linejoin:miter;stroke-miterlimit:4;stroke-dasharray:none;stroke-dashoffset:0"
       id="rect1993"
       width="2.2261071"
       height="2.2261071"
       x="206.74825"
       y="61.649181"
       ry="3.7853616e-07" />
    <rect
       style="fill:#00ffff;fill-opacity:0.4;stroke:#000000;stroke-width:0.999999;stroke-linejoin:miter;stroke-miterlimit:4;stroke-dasharray:none;stroke-dashoffset:0"
       id="rect1995"
       width="2.2261071"
       height="2.2261071"
       x="208.97435"
       y="54.97086"
       ry="3.7853616e-07" />
    <rect
       style="fill:#00ffff;fill-opacity:0.4;stroke:#000000;stroke-width:0.999999;stroke-linejoin:miter;stroke-miterlimit:4;stroke-dasharray:none;stroke-dashoffset:0"
       id="rect1997"
       width="2.2261071"
       height="2.2261071"
       x="197.84383"
       y="61.649181"
       ry="3.7853616e-07" />
    <rect
       style="fill:#00ffff;fill-opacity:0.4;stroke:#000000;stroke-width:0.999999;stroke-linejoin:miter;stroke-miterlimit:4;stroke-dasharray:none;stroke-dashoffset:0"
       id="rect1999"
       width="2.2261071"
       height="2.2261071"
       x="191.1655"
       y="68.327507"
       ry="3.7853616e-07" />
    <circle
       style="fill:#00ffff;fill-opacity:1;stroke:#000000;stroke-width:0.999999;stroke-linejoin:miter;stroke-miterlimit:4;stroke-dasharray:none;stroke-dashoffset:0"
       id="circle2001"
       cx="203.42393"
       cy="63.710617"
       r="1.1130536" />
    <circle
       style="fill:#ff0000;fill-opacity:1;stroke:#000000;stroke-width:0.999999;stroke-linejoin:miter;stroke-miterlimit:4;stroke-dasharray:none;stroke-dashoffset:0"
       id="circle2003"
       cx="178.8743"
       cy="36.157093"
       r="1.1130536" />
    <text
       xml:space="preserve"
       style="font-style:normal;font-variant:normal;font-weight:normal;font-stretch:normal;font-size:4.23333px;line-height:1.25;font-family:STIX;-inkscape-font-specification:STIX;letter-spacing:0px;word-spacing:0px;fill:#000000;fill-opacity:1;stroke:none;stroke-width:0.264583"
       x="35.214611"
       y="24.762505"
       id="text2055"><tspan
         sodipodi:role="line"
         id="tspan2053"
         x="35.214611"
         y="24.762505"
         style="font-style:normal;font-variant:normal;font-weight:normal;font-stretch:normal;font-size:4.23333px;font-family:STIX;-inkscape-font-specification:STIX;stroke-width:0.264583">(a)</tspan></text>
    <text
       xml:space="preserve"
       style="font-style:normal;font-variant:normal;font-weight:normal;font-stretch:normal;font-size:4.23333px;line-height:1.25;font-family:STIX;-inkscape-font-specification:STIX;letter-spacing:0px;word-spacing:0px;fill:#000000;fill-opacity:1;stroke:none;stroke-width:0.264583"
       x="86.415077"
       y="24.762505"
       id="text2059"><tspan
         sodipodi:role="line"
         id="tspan2057"
         x="86.415077"
         y="24.762505"
         style="font-style:normal;font-variant:normal;font-weight:normal;font-stretch:normal;font-size:4.23333px;font-family:STIX;-inkscape-font-specification:STIX;stroke-width:0.264583">(b)</tspan></text>
    <text
       xml:space="preserve"
       style="font-style:normal;font-variant:normal;font-weight:normal;font-stretch:normal;font-size:4.23333px;line-height:1.25;font-family:STIX;-inkscape-font-specification:STIX;letter-spacing:0px;word-spacing:0px;fill:#000000;fill-opacity:1;stroke:none;stroke-width:0.264583"
       x="137.61554"
       y="24.762505"
       id="text2063"><tspan
         sodipodi:role="line"
         id="tspan2061"
         x="137.61554"
         y="24.762505"
         style="font-style:normal;font-variant:normal;font-weight:normal;font-stretch:normal;font-size:4.23333px;font-family:STIX;-inkscape-font-specification:STIX;stroke-width:0.264583">(c)</tspan></text>
    <text
       xml:space="preserve"
       style="font-style:normal;font-variant:normal;font-weight:normal;font-stretch:normal;font-size:4.23333px;line-height:1.25;font-family:STIX;-inkscape-font-specification:STIX;letter-spacing:0px;word-spacing:0px;fill:#000000;fill-opacity:1;stroke:none;stroke-width:0.264583"
       x="188.81599"
       y="24.762505"
       id="text2067"><tspan
         sodipodi:role="line"
         id="tspan2065"
         x="188.81599"
         y="24.762505"
         style="font-style:normal;font-variant:normal;font-weight:normal;font-stretch:normal;font-size:4.23333px;font-family:STIX;-inkscape-font-specification:STIX;stroke-width:0.264583">(d)</tspan></text>
  </g>
</svg>
